RippleCarryAdder.vcd
$date
	Tue Jan 12 20:32:04 2021
$end
$version
	Icarus Verilog
$end
$timescale
	100ps
$end
$scope module tb $end
$var wire 9 ! o [8:0] $end
$var wire 1 " cout $end
$var reg 1 # clk $end
$var reg 8 $ i0 [7:0] $end
$var reg 8 % i1 [7:0] $end
$var reg 1 & reset $end
$var integer 32 ' i [31:0] $end
$scope module RCA_0 $end
$var wire 8 ( a [7:0] $end
$var wire 8 ) b [7:0] $end
$var wire 8 * sum [7:0] $end
$var wire 8 + c_out [7:0] $end
$var wire 7 , c [6:0] $end
$scope module rca0 $end
$var wire 1 - a $end
$var wire 1 . b $end
$var wire 1 / c_out $end
$var wire 1 0 s $end
$upscope $end
$scope module rca1 $end
$var wire 1 1 a $end
$var wire 1 2 b $end
$var wire 1 3 c_in $end
$var wire 1 4 c_out $end
$var wire 1 5 s $end
$upscope $end
$scope module rca2 $end
$var wire 1 6 a $end
$var wire 1 7 b $end
$var wire 1 8 c_in $end
$var wire 1 9 c_out $end
$var wire 1 : s $end
$upscope $end
$scope module rca3 $end
$var wire 1 ; a $end
$var wire 1 < b $end
$var wire 1 = c_in $end
$var wire 1 > c_out $end
$var wire 1 ? s $end
$upscope $end
$scope module rca4 $end
$var wire 1 @ a $end
$var wire 1 A b $end
$var wire 1 B c_in $end
$var wire 1 C c_out $end
$var wire 1 D s $end
$upscope $end
$scope module rca5 $end
$var wire 1 E a $end
$var wire 1 F b $end
$var wire 1 G c_in $end
$var wire 1 H c_out $end
$var wire 1 I s $end
$upscope $end
$scope module rca6 $end
$var wire 1 J a $end
$var wire 1 K b $end
$var wire 1 L c_in $end
$var wire 1 M c_out $end
$var wire 1 N s $end
$upscope $end
$scope module rca7 $end
$var wire 1 O a $end
$var wire 1 P b $end
$var wire 1 Q c_in $end
$var wire 1 R c_out $end
$var wire 1 S s $end
$upscope $end
$upscope $end
$upscope $end
$enddefinitions $end
#0
$dumpvars
0S
0R
0Q
0P
0O
0N
0M
0L
0K
0J
0I
0H
0G
0F
0E
0D
0C
0B
0A
0@
0?
0>
0=
0<
0;
0:
09
08
07
06
05
04
03
02
01
00
0/
0.
0-
b0 ,
b0 +
b0 *
b0 )
b0 (
bx '
1&
b0 %
b0 $
0#
0"
b0 !
$end
#50
1#
#60
b0 '
#100
0#
#125
0&
#150
1#
#160
b1 !
b1 *
10
1-
b1 '
b1 $
b1 (
#200
0#
#250
1#
#260
15
13
b10 !
b10 *
00
b1 ,
1/
1.
b10 '
b1 %
b1 )
#300
0#
#350
1#
#360
1"
b1 +
1R
1Q
1M
1L
1H
1G
1C
1B
1>
1=
19
18
05
b1111111 ,
14
0:
0?
0D
0I
0N
b0 !
b0 *
0S
11
16
1;
1@
1E
1J
1O
b11 '
b11111111 $
b11111111 (
#400
0#
#450
1#
#460
15
1:
1?
1D
1I
1N
b11111110 !
b11111110 *
1S
12
17
1<
1A
1F
1K
1P
b100 '
b11111111 %
b11111111 )
#500
0#
#550
1#
#560
05
0D
0N
03
0:
b10101001 !
b10101001 *
10
b1111110 ,
0/
0@
0J
0.
07
b101 '
b10101111 $
b10101111 (
b11111010 %
b11111010 )
#600
0#
#650
1#
#660
0B
0>
08
0=
15
04
0:
09
1?
0D
1N
13
b11101010 !
b11101010 *
00
b1110001 ,
1/
01
06
0;
1@
1J
1.
02
b110 '
b11110001 $
b11110001 (
b11111001 %
b11111001 )
#700
0#
#750
1#
#760
1S
1Q
1M
1L
1H
0=
09
1B
1G
08
1>
1C
04
03
1:
0?
0D
0I
15
0N
b10000111 !
b10000111 *
10
b1111000 ,
0/
0-
16
1;
0@
0E
12
0K
b111 '
b11001100 $
b11001100 (
b10111011 %
b10111011 )
#800
0#
#850
1#
#860
0"
b0 +
0R
0Q
0M
1N
0L
0H
1I
0G
0C
1D
0B
b0 ,
0>
1?
b11111111 !
b11111111 *
1S
1-
11
1@
1E
0.
02
0<
0A
0F
0P
b1000 '
b11111111 $
b11111111 (
b0 %
b0 )
