RippleCarryAdder.vcd
$date
	Fri Jan 15 17:51:24 2021
$end
$version
	Icarus Verilog
$end
$timescale
	100ps
$end
$scope module tb $end
$var wire 8 ! o [7:0] $end
$var wire 1 " cout $end
$var reg 1 # clk $end
$var reg 8 $ i0 [7:0] $end
$var reg 8 % i1 [7:0] $end
$var reg 1 & reset $end
$var integer 32 ' i [31:0] $end
$scope module RCA_0 $end
$var wire 8 ( a [7:0] $end
$var wire 8 ) b [7:0] $end
$var wire 8 * sum [7:0] $end
$var wire 1 " c_out $end
$var wire 7 + c [6:0] $end
$scope module rca0 $end
$var wire 1 , a $end
$var wire 1 - b $end
$var wire 1 . c_out $end
$var wire 1 / s $end
$upscope $end
$scope module rca1 $end
$var wire 1 0 a $end
$var wire 1 1 b $end
$var wire 1 2 c_in $end
$var wire 1 3 c_out $end
$var wire 1 4 s $end
$upscope $end
$scope module rca2 $end
$var wire 1 5 a $end
$var wire 1 6 b $end
$var wire 1 7 c_in $end
$var wire 1 8 c_out $end
$var wire 1 9 s $end
$upscope $end
$scope module rca3 $end
$var wire 1 : a $end
$var wire 1 ; b $end
$var wire 1 < c_in $end
$var wire 1 = c_out $end
$var wire 1 > s $end
$upscope $end
$scope module rca4 $end
$var wire 1 ? a $end
$var wire 1 @ b $end
$var wire 1 A c_in $end
$var wire 1 B c_out $end
$var wire 1 C s $end
$upscope $end
$scope module rca5 $end
$var wire 1 D a $end
$var wire 1 E b $end
$var wire 1 F c_in $end
$var wire 1 G c_out $end
$var wire 1 H s $end
$upscope $end
$scope module rca6 $end
$var wire 1 I a $end
$var wire 1 J b $end
$var wire 1 K c_in $end
$var wire 1 L c_out $end
$var wire 1 M s $end
$upscope $end
$scope module rca7 $end
$var wire 1 N a $end
$var wire 1 O b $end
$var wire 1 P c_in $end
$var wire 1 " c_out $end
$var wire 1 Q s $end
$upscope $end
$upscope $end
$upscope $end
$enddefinitions $end
#0
$dumpvars
0Q
0P
0O
0N
0M
0L
0K
0J
0I
0H
0G
0F
0E
0D
0C
0B
0A
0@
0?
0>
0=
0<
0;
0:
09
08
07
06
05
04
03
02
01
00
0/
0.
0-
0,
b0 +
b0 *
b0 )
b0 (
bx '
1&
b0 %
b0 $
0#
0"
b0 !
$end
#50
1#
#60
b0 '
#100
0#
#125
0&
#150
1#
#160
b1 !
b1 *
1/
1,
b1 '
b1 $
b1 (
#200
0#
#250
1#
#260
14
12
b10 !
b10 *
0/
b1 +
1.
1-
b10 '
b1 %
b1 )
#300
0#
#350
1#
#360
1"
1P
1L
1K
1G
1F
1B
1A
1=
1<
18
17
04
b1111111 +
13
09
0>
0C
0H
0M
b0 !
b0 *
0Q
10
15
1:
1?
1D
1I
1N
b11 '
b11111111 $
b11111111 (
#400
0#
#450
1#
#460
14
19
1>
1C
1H
1M
b11111110 !
b11111110 *
1Q
11
16
1;
1@
1E
1J
1O
b100 '
b11111111 %
b11111111 )
#500
0#
#550
1#
#560
04
0C
0M
02
09
b10101001 !
b10101001 *
1/
b1111110 +
0.
0?
0I
0-
06
b101 '
b10101111 $
b10101111 (
b11111010 %
b11111010 )
#600
0#
#650
1#
#660
0A
0=
07
0<
14
03
09
08
1>
0C
1M
12
b11101010 !
b11101010 *
0/
b1110001 +
1.
00
05
0:
1?
1I
1-
01
b110 '
b11110001 $
b11110001 (
b11111001 %
b11111001 )
#700
0#
#750
1#
#760
1Q
1P
1L
1K
1G
0<
08
1A
1F
07
1=
1B
03
02
19
0>
0C
0H
14
0M
b10000111 !
b10000111 *
1/
b1111000 +
0.
0,
15
1:
0?
0D
11
0J
b111 '
b11001100 $
b11001100 (
b10111011 %
b10111011 )
#800
0#
#850
1#
#860
0"
0P
0L
1M
0K
0G
1H
0F
0B
1C
0A
b0 +
0=
1>
b11111111 !
b11111111 *
1Q
1,
10
1?
1D
0-
01
0;
0@
0E
0O
b1000 '
b11111111 $
b11111111 (
b0 %
b0 )
